-------------------------------------------------
 nench.sh v2019.07.20 -- https://git.io/nench.sh
 benchmark timestamp:    2019-12-04 14:46:16 UTC
-------------------------------------------------

Processor:    AMD GX-412TC SOC
CPU cores:    4
Frequency:    632.775 MHz
RAM:          3.8Gi
bash: line 156: swapon: command not found
Swap:         -
Kernel:       Linux 4.19.0-6-amd64 x86_64

Disks:
sda  111.8G  SSD

CPU: SHA256-hashing 500 MB
    20.244 seconds
CPU: bzip2-compressing 500 MB
    36.004 seconds
CPU: AES-encrypting 500 MB
    5.176 seconds

ioping: seek rate
    min/avg/max/mdev = 153.1 us / 189.6 us / 9.55 ms / 63.3 us
ioping: sequential read speed
    generated 7.63 k requests in 5.00 s, 1.86 GiB, 1.53 k iops, 381.7 MiB/s

dd: sequential write speed
    1st run:    138.28 MiB/s
    2nd run:    138.28 MiB/s
    3rd run:    139.24 MiB/s
    average:    138.60 MiB/s

IPv4 speedtests
    your IPv4:    150.241.255.xxxx

    Cachefly CDN:         32.84 MiB/s
    Leaseweb (NL):        14.05 MiB/s
    Softlayer DAL (US):   4.66 MiB/s
    Online.net (FR):      33.10 MiB/s
    OVH BHS (CA):         8.78 MiB/s

No IPv6 connectivity detected
-------------------------------------------------

-------------------------------------------------
 nench.sh v2019.07.20 -- https://git.io/nench.sh
 benchmark timestamp:    2019-12-04 14:48:29 UTC
-------------------------------------------------

Processor:    AMD GX-412TC SOC
CPU cores:    4
Frequency:    724.390 MHz
RAM:          3.8Gi
bash: line 156: swapon: command not found
Swap:         -
Kernel:       Linux 4.19.0-6-amd64 x86_64

Disks:
sda  111.8G  SSD

CPU: SHA256-hashing 500 MB
    20.374 seconds
CPU: bzip2-compressing 500 MB
    36.684 seconds
CPU: AES-encrypting 500 MB
    5.108 seconds

ioping: seek rate
    min/avg/max/mdev = 144.6 us / 189.2 us / 9.54 ms / 63.6 us
ioping: sequential read speed
    generated 7.62 k requests in 5.00 s, 1.86 GiB, 1.52 k iops, 381.1 MiB/s

dd: sequential write speed
    1st run:    74.96 MiB/s
    2nd run:    41.48 MiB/s
    3rd run:    43.77 MiB/s
    average:    53.41 MiB/s

IPv4 speedtests
    your IPv4:    150.241.255.xxxx

    Cachefly CDN:         91.83 MiB/s
    Leaseweb (NL):        13.25 MiB/s
    Softlayer DAL (US):   7.89 MiB/s
    Online.net (FR):      36.50 MiB/s
    OVH BHS (CA):         18.78 MiB/s

No IPv6 connectivity detected
-------------------------------------------------

